[
  {
    "name": "Alessandro",
    "male": true,
    "eyeColor": "MARRONE",
    "skinColor": "ROSA",
    "hairColor": {
      "value": "NERO"
    },
    "beardColor": {},
    "mustacheColor": {
      "value": "NERO"
    },
    "hat": false,
    "earrings": false,
    "glasses": false,
    "hairType": "MOSSI",
    "dressType": "CAMICIA",
    "picPath": "/images/pack2/Alessandro.png"
  },
  {
    "name": "Alfredo",
    "male": true,
    "eyeColor": "BLU",
    "skinColor": "ROSA",
    "hairColor": {
      "value": "MARRONE"
    },
    "beardColor": {},
    "mustacheColor": {
      "value": "MARRONE"
    },
    "hat": false,
    "earrings": false,
    "glasses": false,
    "hairType": "LISCI",
    "dressType": "CAMICIA",
    "picPath": "/images/pack2/Alfredo.png"
  },
  {
    "name": "Anita",
    "male": false,
    "eyeColor": "BLU",
    "skinColor": "ROSA",
    "hairColor": {
      "value": "BIONDO"
    },
    "beardColor": {},
    "mustacheColor": {},
    "hat": false,
    "earrings": false,
    "glasses": false,
    "hairType": "LISCI",
    "dressType": "CAMICIA",
    "picPath": "/images/pack2/Anita.png"
  },
  {
    "name": "Anna",
    "male": false,
    "eyeColor": "MARRONE",
    "skinColor": "ROSA",
    "hairColor": {
      "value": "NERO"
    },
    "beardColor": {},
    "mustacheColor": {},
    "hat": false,
    "earrings": true,
    "glasses": false,
    "hairType": "MOSSI",
    "dressType": "CAMICIA",
    "picPath": "/images/pack2/Anna.png"
  },
  {
    "name": "Bernardo",
    "male": true,
    "eyeColor": "MARRONE",
    "skinColor": "ROSA",
    "hairColor": {
      "value": "MARRONE"
    },
    "beardColor": {},
    "mustacheColor": {},
    "hat": true,
    "earrings": false,
    "glasses": false,
    "hairType": "LISCI",
    "dressType": "CAMICIA",
    "picPath": "/images/pack2/Bernardo.png"
  },
  {
    "name": "Carlo",
    "male": true,
    "eyeColor": "MARRONE",
    "skinColor": "ROSA",
    "hairColor": {
      "value": "BIONDO"
    },
    "beardColor": {},
    "mustacheColor": {
      "value": "BIONDO"
    },
    "hat": false,
    "earrings": false,
    "glasses": false,
    "hairType": "LISCI",
    "dressType": "CAMICIA",
    "picPath": "/images/pack2/Carlo.png"
  },
  {
    "name": "Chiara",
    "male": false,
    "eyeColor": "MARRONE",
    "skinColor": "ROSA",
    "hairColor": {
      "value": "MARRONE"
    },
    "beardColor": {},
    "mustacheColor": {},
    "hat": true,
    "earrings": false,
    "glasses": true,
    "hairType": "MOSSI",
    "dressType": "CAMICIA",
    "picPath": "/images/pack2/Chiara.png"
  },
  {
    "name": "Davide",
    "male": true,
    "eyeColor": "MARRONE",
    "skinColor": "ROSA",
    "hairColor": {
      "value": "BIONDO"
    },
    "beardColor": {
      "value": "BIONDO"
    },
    "mustacheColor": {},
    "hat": false,
    "earrings": false,
    "glasses": false,
    "hairType": "MOSSI",
    "dressType": "CAMICIA",
    "picPath": "/images/pack2/Davide.png"
  },
  {
    "name": "Ernesto",
    "male": true,
    "eyeColor": "MARRONE",
    "skinColor": "ROSA",
    "hairColor": {
      "value": "BIONDO"
    },
    "beardColor": {},
    "mustacheColor": {},
    "hat": true,
    "earrings": false,
    "glasses": false,
    "hairType": "MOSSI",
    "dressType": "CAMICIA",
    "picPath": "/images/pack2/Ernesto.png"
  },
  {
    "name": "Filippo",
    "male": true,
    "eyeColor": "MARRONE",
    "skinColor": "ROSA",
    "hairColor": {
      "value": "NERO"
    },
    "beardColor": {
      "value": "NERO"
    },
    "mustacheColor": {},
    "hat": false,
    "earrings": false,
    "glasses": false,
    "hairType": "MOSSI",
    "dressType": "CAMICIA",
    "picPath": "/images/pack2/Filippo.png"
  },
  {
    "name": "Giacomo",
    "male": true,
    "eyeColor": "MARRONE",
    "skinColor": "ROSA",
    "hairColor": {},
    "beardColor": {},
    "mustacheColor": {},
    "hat": false,
    "earrings": false,
    "glasses": false,
    "hairType": "CALVO",
    "dressType": "CAMICIA",
    "picPath": "/images/pack2/Giacomo.png"
  },
  {
    "name": "Giorgio",
    "male": true,
    "eyeColor": "MARRONE",
    "skinColor": "ROSA",
    "hairColor": {},
    "beardColor": {},
    "mustacheColor": {},
    "hat": true,
    "earrings": false,
    "glasses": false,
    "hairType": "CALVO",
    "dressType": "CAMICIA",
    "picPath": "/images/pack2/Giorgio.png"
  },
  {
    "name": "Giuseppe",
    "male": true,
    "eyeColor": "MARRONE",
    "skinColor": "ROSA",
    "hairColor": {
      "value": "BIONDO"
    },
    "beardColor": {},
    "mustacheColor": {},
    "hat": false,
    "earrings": false,
    "glasses": true,
    "hairType": "MOSSI",
    "dressType": "CAMICIA",
    "picPath": "/images/pack2/Giuseppe.png"
  },
  {
    "name": "Guglielmo",
    "male": true,
    "eyeColor": "MARRONE",
    "skinColor": "ROSA",
    "hairColor": {},
    "beardColor": {
      "value": "BIONDO"
    },
    "mustacheColor": {},
    "hat": false,
    "earrings": false,
    "glasses": false,
    "hairType": "CALVO",
    "dressType": "CAMICIA",
    "picPath": "/images/pack2/Guglielmo.png"
  },
  {
    "name": "Manuele",
    "male": true,
    "eyeColor": "MARRONE",
    "skinColor": "ROSA",
    "hairColor": {
      "value": "MARRONE"
    },
    "beardColor": {},
    "mustacheColor": {
      "value": "MARRONE"
    },
    "hat": false,
    "earrings": false,
    "glasses": false,
    "hairType": "MOSSI",
    "dressType": "FELPA",
    "picPath": "/images/pack2/Manuele.png"
  },
  {
    "name": "Marco",
    "male": true,
    "eyeColor": "MARRONE",
    "skinColor": "ROSA",
    "hairColor": {
      "value": "MARRONE"
    },
    "beardColor": {},
    "mustacheColor": {},
    "hat": false,
    "earrings": false,
    "glasses": false,
    "hairType": "MOSSI",
    "dressType": "GIACCA",
    "picPath": "/images/pack2/Marco.png"
  },
  {
    "name": "Maria",
    "male": false,
    "eyeColor": "MARRONE",
    "skinColor": "ROSA",
    "hairColor": {
      "value": "MARRONE"
    },
    "beardColor": {},
    "mustacheColor": {},
    "hat": true,
    "earrings": false,
    "glasses": false,
    "hairType": "LISCI",
    "dressType": "CAMICIA",
    "picPath": "/images/pack2/Maria.png"
  },
  {
    "name": "Paolo",
    "male": true,
    "eyeColor": "MARRONE",
    "skinColor": "ROSA",
    "hairColor": {
      "value": "BIANCO"
    },
    "beardColor": {},
    "mustacheColor": {},
    "hat": false,
    "earrings": false,
    "glasses": true,
    "hairType": "MOSSI",
    "dressType": "CAMICIA",
    "picPath": "/images/pack2/Paolo.png"
  },
  {
    "name": "Pietro",
    "male": true,
    "eyeColor": "BLU",
    "skinColor": "ROSA",
    "hairColor": {
      "value": "BIANCO"
    },
    "beardColor": {},
    "mustacheColor": {},
    "hat": false,
    "earrings": false,
    "glasses": false,
    "hairType": "MOSSI",
    "dressType": "CAMICIA",
    "picPath": "/images/pack2/Pietro.png"
  },
  {
    "name": "Riccardo",
    "male": true,
    "eyeColor": "MARRONE",
    "skinColor": "ROSA",
    "hairColor": {
      "value": "MARRONE"
    },
    "beardColor": {
      "value": "MARRONE"
    },
    "mustacheColor": {
      "value": "MARRONE"
    },
    "hat": false,
    "earrings": false,
    "glasses": false,
    "hairType": "CALVO",
    "dressType": "CAMICIA",
    "picPath": "/images/pack2/Riccardo.png"
  },
  {
    "name": "Roberto",
    "male": true,
    "eyeColor": "BLU",
    "skinColor": "ROSA",
    "hairColor": {
      "value": "MARRONE"
    },
    "beardColor": {},
    "mustacheColor": {},
    "hat": false,
    "earrings": false,
    "glasses": false,
    "hairType": "LISCI",
    "dressType": "CAMICIA",
    "picPath": "/images/pack2/Roberto.png"
  },
  {
    "name": "Samuele",
    "male": true,
    "eyeColor": "MARRONE",
    "skinColor": "ROSA",
    "hairColor": {},
    "beardColor": {},
    "mustacheColor": {},
    "hat": false,
    "earrings": false,
    "glasses": true,
    "hairType": "CALVO",
    "dressType": "CAMICIA",
    "picPath": "/images/pack2/Samuele.png"
  },
  {
    "name": "Susanna",
    "male": false,
    "eyeColor": "MARRONE",
    "skinColor": "ROSA",
    "hairColor": {
      "value": "BIANCO"
    },
    "beardColor": {},
    "mustacheColor": {},
    "hat": false,
    "earrings": false,
    "glasses": false,
    "hairType": "LISCI",
    "dressType": "CAMICIA",
    "picPath": "/images/pack2/Susanna.png"
  },
  {
    "name": "Tommaso",
    "male": true,
    "eyeColor": "BLU",
    "skinColor": "ROSA",
    "hairColor": {},
    "beardColor": {},
    "mustacheColor": {},
    "hat": false,
    "earrings": false,
    "glasses": true,
    "hairType": "CALVO",
    "dressType": "CAMICIA",
    "picPath": "/images/pack2/Tommaso.png"
  }
]
